{
    "@id": "https://themost.io/schemas/AttachmentType",
    "name": "AttachmentType",
    "title": "AttachmentType",
    "hidden": false,
    "sealed": false,
    "abstract": false,
    "implements": "Enumeration",
    "version": "1.1",
    "fields": [
        {
            "@id": "https://themost.io/schemas/id",
            "name": "id",
            "title": "id",
            "description": "The identifier of the item.",
            "type": "Counter",
            "primary": true
        },
        {
            "@id": "http://schema.org/alternateName",
            "name": "alternateName",
            "title": "alternateName",
            "description": "An alias for the item.",
            "nullable": false,
            "type": "Text"
        }
    ],
    "privileges": [
        {
            "mask": 1,
            "type": "global",
            "account": "*"
        },
        {
            "mask": 15,
            "type": "global"
        },
        {
            "mask": 15,
            "type": "global",
            "account": "Administrators"
        }
    ],
    "constraints": [
        {
            "type": "unique",
            "description": "Alternate name must be unique across different records",
            "fields": [
                "alternateName"
            ]
        }
    ]
}
