
{"name": "CourseSectorRule", "id": 7159792,"type":"memory", "title": "Course sector rules", "hidden": true, "sealed":true,"version": "0.1", "inherits":"Rule" ,
    "classPath":"./rules/coursesector-rule", "fields": [
    {
        "name": "id",
        "title": "Id",
        "description": "Id",
        "type": "Integer",
        "nullable": false,
        "primary":true
    }
], "privileges":[
    { "mask":1, "type":"global", "account":"*" },
    { "mask":15, "type":"global" }
]}