
{"name": "CourseAreaRule", "id": 7244098,"type":"memory", "title": "Course Passed Rules", "hidden": true, "sealed":true,"version": "0.1", "inherits":"Rule" ,
    "classPath":"./rules/coursearea-rule", "fields": [
    {
        "name": "id",
        "title": "Id",
        "description": "Id",
        "type": "Integer",
        "nullable": false,
        "primary":true
    }
], "privileges":[
    { "mask":1, "type":"global", "account":"*" },
    { "mask":15, "type":"global" }
]}