{
  "name": "CourseCategory",
  "title": "Κατηγορία μαθήματος",
  "hidden": false,
  "sealed": false,
  "abstract": false,
  "caching": "always",
  "implements": "Enumeration",
  "category":"lookup",
  "version": "1.0",
  "fields": [
    {
      "name": "id",
      "title": "Id",
      "type": "Counter",
      "nullable": false,
      "primary": true
    }
  ],
  "privileges": [
    {
      "mask": 1,
      "type": "global",
      "account": "*"
    },
    {
      "mask": 15,
      "type": "global"
    }
  ],
  "constraints": [
    {
      "type": "unique",
      "description": "Alternate name must be unique across different records",
      "fields": [
        "alternateName"
      ]
    },
    {
      "type": "unique",
      "description": "Name must be unique across different records",
      "fields": [
        "name"
      ]
    }
  ],
  "seed": [
    {
      "alternateName": "theory",
      "name": "Θεωρία",
      "description": "Το μάθημα είναι θεωρητικό"
    },
    {
      "alternateName": "laboratory",
      "name": "Εργαστήριο",
      "description": "Το μάθημα είναι εργαστηριακό"
    },
    {
      "alternateName": "complex",
      "name": "Μικτό",
      "description": "Το μάθημα είναι μικτό (συνήθως περιλαμβάνει θεωρία και εργαστήριο)"
    },
    {
      "alternateName": "lecture",
      "name": "Διάλεξη",
      "description": "Το μάθημα έχει διαλέξεις"
    },
    {
      "alternateName": "tutorial",
      "name": "Φροντιστήριο",
      "description": "Το μάθημα είναι φροντιστηριακό (συνήθως δε βαθμολογείται)"
    },
    {
      "alternateName": "other",
      "name": "Άλλο",
      "description": "Άλλη κατηγορία"
    }
  ],
  "eventListeners": [
    {
      "name": "Lookup Cache Listener",
      "type": "./listeners/lookup-cache-listener.js"
    }
  ]
}
