{"name": "ExchangeProgram", "id": 829962033, "type":"lookup", "title": "Πρόγραμμα ανταλλαγής φοιτητών",
    "hidden": false,
    "sealed": false,
    "abstract": false,
    "caching":"always",
    "implements":"Enumeration",
    "category":"lookup",
    "version": "1.1",
    "fields": [
        {
            "name": "id",
            "title": "Id",
            "type": "Counter",
            "nullable": false,
            "primary": true
        }
    ],
    "privileges":[
        { "mask":1, "type":"global", "account":"*" },
        { "mask":15, "type":"global" }
    ],
    "constraints": [
        {
            "type": "unique",
            "description": "Alternate name must be unique across different records",
            "fields": [ "alternateName" ]
        },
        {
            "type": "unique",
            "description": "Name must be unique across different records",
            "fields": [ "name" ]
        }
    ],
    "seed":[
        {
            "name": "ERASMUS MUNDUS"
        },
        {
            "name": "SOCRATES"
        },
        {
            "name": "TMP"
        },
        {
            "name": "LEO"
        },
        {
            "name": "FREE MOVER"
        },
        {
            "name": "AEGEE"
        },
        {
            "name": "UTRECHT-USA"
        },
        {
            "name": "IAESTE"
        },
        {
            "name": "EUROPEAN MASTER"
        },
        {
            "name": "E.I.L.C."
        },
        {
            "name": "HEL.M.S.I.C."
        },
        {
            "name": "ELPIS"
        }
    ],
    "eventListeners":[
        { "name":"Lookup Cache Listener", "type":"./listeners/lookup-cache-listener.js" }
    ]
}
