{
  "name": "Nationality",
  "id": 1037962774,
  "title": "Υπηκοότητα",
  "hidden": false,
  "sealed": false,
  "version": "2.0",
  "category": "lookup",
  "fields": [
    {
      "name": "id",
      "title": "Id",
      "description": "Id",
      "type": "Integer",
      "nullable": false,
      "size": 4,
      "primary": true
    },
    {
      "name": "name",
      "title": "Ονομασία",
      "description": "Η ονομασία της υπηκοότητας.",
      "type": "Text",
      "nullable": false,
      "size": 100
    },
    {
      "name": "alpha2code",
      "title": "Alpha-2 code",
      "type": "Text",
      "nullable": false,
      "size": 2
    },
    {
      "name": "alpha3code",
      "title": "Alpha-3 code",
      "type": "Text",
      "nullable": false,
      "size": 3
    }
  ],
  "privileges": [
    {
      "mask": 1,
      "type": "global",
      "account": "*"
    },
    {
      "mask": 15,
      "type": "global"
    }
  ],
  "eventListeners": [
    {
      "name": "Lookup Cache Listener",
      "type": "./listeners/lookup-cache-listener.js"
    }
  ]
}